('/Users/sinya.peng/Code/django_test/breast_center/build/manage/manage',
 True,
 False,
 True,
 None,
 None,
 False,
 False,
 None,
 True,
 'manage.pkg',
 [('PYZ-00.pyz',
   '/Users/sinya.peng/Code/django_test/breast_center/build/manage/PYZ-00.pyz',
   'PYZ'),
  ('_struct',
   '/Users/sinya.peng/.local/share/virtualenvs/breast_center-hOl0JVKw/lib/python3.7/lib-dynload/_struct.cpython-37m-darwin.so',
   'EXTENSION'),
  ('zlib',
   '/Users/sinya.peng/.local/share/virtualenvs/breast_center-hOl0JVKw/lib/python3.7/lib-dynload/zlib.cpython-37m-darwin.so',
   'EXTENSION'),
  ('struct',
   '/Users/sinya.peng/.local/share/virtualenvs/breast_center-hOl0JVKw/lib/python3.7/struct.pyo',
   'PYMODULE'),
  ('pyimod01_os_path',
   '/Users/sinya.peng/.local/share/virtualenvs/breast_center-hOl0JVKw/lib/python3.7/site-packages/PyInstaller/loader/pyimod01_os_path.pyc',
   'PYMODULE'),
  ('pyimod02_archive',
   '/Users/sinya.peng/.local/share/virtualenvs/breast_center-hOl0JVKw/lib/python3.7/site-packages/PyInstaller/loader/pyimod02_archive.pyc',
   'PYMODULE'),
  ('pyimod03_importers',
   '/Users/sinya.peng/.local/share/virtualenvs/breast_center-hOl0JVKw/lib/python3.7/site-packages/PyInstaller/loader/pyimod03_importers.pyc',
   'PYMODULE'),
  ('pyiboot01_bootstrap',
   '/Users/sinya.peng/.local/share/virtualenvs/breast_center-hOl0JVKw/lib/python3.7/site-packages/PyInstaller/loader/pyiboot01_bootstrap.py',
   'PYSOURCE'),
  ('pyi_rth_pkgres',
   '/Users/sinya.peng/.local/share/virtualenvs/breast_center-hOl0JVKw/lib/python3.7/site-packages/PyInstaller/loader/rthooks/pyi_rth_pkgres.py',
   'PYSOURCE'),
  ('pyi_rth_django',
   '/Users/sinya.peng/.local/share/virtualenvs/breast_center-hOl0JVKw/lib/python3.7/site-packages/PyInstaller/loader/rthooks/pyi_rth_django.py',
   'PYSOURCE'),
  ('manage',
   '/Users/sinya.peng/Code/django_test/breast_center/manage.py',
   'PYSOURCE')],
 [],
 False,
 False,
 1580747595,
 [('run',
   '/Users/sinya.peng/.local/share/virtualenvs/breast_center-hOl0JVKw/lib/python3.7/site-packages/PyInstaller/bootloader/Darwin-64bit/run',
   'EXECUTABLE')])
